@startuml projet

actor Utilisateur << Humain >>
actor Serveur << Non Humain >>

rectangle detecter_emotion {
    usecase (Prendre une photo) as (UC1)
    usecase (Envoyer une photo) as (UC2)
    usecase (Traiter la donnée) as (UC3)
    usecase (Envoyer un emoji) as (UC4)

    ''Utilisateur''
    Utilisateur -right- UC1
    Utilisateur -right- UC2
    UC1 <.down. UC2 : <<include>>

    ''Serveur''
    Serveur -left- UC3
    Serveur -left- UC4
    UC3 -up-> UC4

    ''Utilisateur et Serveur''
    UC2 <.right. UC3 : <<include>>
}

@enduml