@startuml
Utilisateur -> Utilisateur: obtention d'une photo d'un visage humain
Utilisateur -> Système: envoi d'une photo d'un visage humain
Système -> Système: détection de l'émotion
Système -> Utilisateur: affichage d'un émoji correspondant à l'émotion détectée
@enduml